{
    "title": "Parameters",
    "type": "object",
    "required": [
        "username",
        "#password",
        "#security_token",
        "instance"
    ],
    "properties": {
        "username": {
            "title": "Username",
            "type": "string",
            "description": "",
            "minLength": 1,
            "default": ""
        },
        "#password": {
            "title": "Password",
            "type": "string",
            "description": "",
            "minLength": 1,
            "default": ""
        },
        "#security_token": {
            "title": "Security Token",
            "type": "string",
            "description": "Token is assigned when you reset your password.",
            "minLength": 1,
            "default": ""
        },
        "instance": {
            "title": "SFDC Instance",
            "type": "string",
            "description": "For example: na50",
            "minLength": 1,
            "default": ""
        },
        "report_id": {
            "title": "Report IDs",

            "report_id": "Report ID",
            "type": "array",
            "description": "Please also create an output table with the same name as the report in the output mapping. For example: 00O36000007L3gy.csv",
            "uniqueItems": true,
            "items": {
                "type": "string",
                "title": "Report"
            }
        }
    }
}